<svg xmlns="http://www.w3.org/2000/svg" xmlns:xlink="http://www.w3.org/1999/xlink" version="1.1" width="24" height="24" viewBox="0 0 24 24">
    <defs>
        <style>
            .\33 b2cf6dd-bd2e-4d15-8627-9205ce97f7fc{fill:#fff;}
        </style>
    </defs>
    <title>chevron-down</title>
    <path class="3b2cf6dd-bd2e-4d15-8627-9205ce97f7fc" d="M7.41,8.58L12,13.17L16.59,8.58L18,10L12,16L6,10L7.41,8.58Z" />
</svg>