<svg xmlns="http://www.w3.org/2000/svg" xmlns:xlink="http://www.w3.org/1999/xlink" version="1.1" width="24" height="24" viewBox="0 0 24 24">
    <defs>
        <style>
            .\33 b2cf6dd-bd2e-4d15-8627-9205ce97f7fa{fill:#fff;}
        </style>
    </defs>
    <title>fullscreen</title>
    <path class="3b2cf6dd-bd2e-4d15-8627-9205ce97f7fa" d="M5,5H10V7H7V10H5V5M14,5H19V10H17V7H14V5M17,14H19V19H14V17H17V14M10,17V19H5V14H7V17H10Z" />
</svg>