<svg xmlns="http://www.w3.org/2000/svg" xmlns:xlink="http://www.w3.org/1999/xlink" version="1.1" width="24" height="24" viewBox="0 0 24 24">
    <defs>
        <style>
            .\33 b2cf6dd-bd2e-4d15-8627-9205ce97f7fc{fill:#fff;}
        </style>
    </defs>
    <title>pause</title>
    <path class="3b2cf6dd-bd2e-4d15-8627-9205ce97f7fc" d="M14,19H18V5H14M6,19H10V5H6V19Z" />
</svg>